"CJRC_リニア","/Users/hiroki/Sites/linear.jr-central.co.jp/htdocs"
"tdw-template4","/Users/hiroki/Sites/tdw-template4/htdocs"
"CJRC_本サイト","/Users/hiroki/Sites/2017-www.jr-central.co.jp/htdocs"
"さんふらわあ_フェリー","/Users/hiroki/Sites/www.ferry-sunflower.co.jp/htdocs"
"CJRC_奈良","/Users/hiroki/Sites/nara.jr-central.co.jp/htdocs"
"tdw-template4_dev","/Users/hiroki/Sites/tdw-template4/source/project_name/dev"
"CJRC_リニア鉄道館","/Users/hiroki/Sites/museum.jr-central.co.jp/htdocs"
"日本郵政_採用2020・p1","/Users/hiroki/Sites/p1.2020"
"CJRC_リニア鉄道館_カレンダー管理dev","/Users/hiroki/Sites/museum.jr-central.co.jp/source/calendar_admin/dev"
"CJRC採用_2021・p1","/Users/hiroki/Sites/p1.2021.saiyo.jr-central.co.jp/htdocs"
"日本郵政_採用2020・p2","/Users/hiroki/Sites/p2.2020"
"CJRC採用_2021・p2","/Users/hiroki/Sites/p2.2021.saiyo.jr-central.co.jp/htdocs"
"CJRC採用_2021・p3","/Users/hiroki/Sites/p3.2021.saiyo.jr-central.co.jp/htdocs"
"docroot_change2_dev","/Users/hiroki/Sites/docroot_change2/_source/dev"
"日本郵政_採用2020・p3","/Users/hiroki/Sites/p3.2020"
